[
	{
		"gachaType": 301,
		"scheduleId": 903,
		"bannerType": "EVENT",
		"prefabPath": "GachaShowPanel_A115",
		"previewPrefabPath": "",
		"titlePath": "UI_GACHA_SHOW_PANEL_A0115_TITLE",
		"costItemId": 223,
		"beginTime": 0,
		"endTime": 1924992000,
		"sortId": 1003,
		"weights5": [[1,80], [73,160], [74,730], [75, 1300], [76,1900], [77,2450], [78,3050], [79,3680], [80,4200], [81,4750], [82,5320], [83,5750], [84,6100], [85,5800], [86,4850], [87,3080], [88,2450], [89,3050], [90,10000]],
		"eventChance5": 50,
		"rateUpItems5": [1078],
		"rateUpItems4": [1044, 1064, 1077],
		"fallbackItems5Pool1": [1003, 1016, 1041, 1035, 1042, 1069],
		"fallbackItems5Pool2": [1003, 1016, 1041, 1035, 1042, 1069]
	},
	{
		"gachaType": 301,
		"scheduleId": 902,
		"bannerType": "EVENT",
		"prefabPath": "GachaShowPanel_A116",
		"previewPrefabPath": "",
		"titlePath": "UI_GACHA_SHOW_PANEL_A031_TITLE",
		"costItemId": 223,
		"beginTime": 0,
		"endTime": 1924992000,
		"sortId": 1002,
		"weights5": [[1,80], [73,160], [74,730], [75, 1300], [76,1900], [77,2450], [78,3050], [79,3680], [80,4200], [81,4750], [82,5320], [83,5750], [84,6100], [85,5800], [86,4850], [87,3080], [88,2450], [89,3050], [90,10000]],
		"eventChance5": 50,
		"rateUpItems5": [1026],
		"rateUpItems4": [1044, 1064, 1077],
		"fallbackItems5Pool1": [1003, 1016, 1041, 1035, 1042, 1069],
		"fallbackItems5Pool2": [1003, 1016, 1041, 1035, 1042, 1069]
	},
	{
		"gachaType": 302,
		"scheduleId": 913,
		"bannerType": "WEAPON",
		"prefabPath": "GachaShowPanel_A117",
		"previewPrefabPath": "",
		"titlePath": "UI_GACHA_SHOW_PANEL_A020_TITLE",
		"costItemId": 223,
		"beginTime": 0,
		"endTime": 1924992000,
		"sortId": 1001,
		"weights5": [[1,108], [62,181], [63,881], [64, 1581], [65,2221], [66,2968], [67,3622], [68,4353], [69,5090], [70, 5598], [71,6300], [72,6730], [73,6333], [74,5455], [75,3889], [76,1234], [77,8000], [78,9000], [79,10000], [80,10000]],
		"rateUpItems5": [11512, 13505],
		"rateUpItems4": [13406, 11402, 12405, 14402, 15403],
		"eventChance5": 75,
		"eventChance4": 75
	},
	{
		"gachaType": 200,	
		"scheduleId": 803,
		"bannerType": "STANDARD",
		"prefabPath": "GachaShowPanel_A022",
		"previewPrefabPath": "",
		"titlePath": "UI_GACHA_SHOW_PANEL_A019_TITLE",
		"costItemId": 224,
		"beginTime": 0,
		"endTime": 1924992000,
		"sortId": 1000,
		"weights5": [[1,80], [73,160], [74,730], [75, 1300], [76,1900], [77,2450], [78,3050], [79,3680], [80,4200], [81,4750], [82,5320], [83,5750], [84,6100], [85,5800], [86,4850], [87,3080], [88,2450], [89,3050], [90,10000]]
	}
]